<svg width="20" height="10" viewBox="0 0 20 10" fill="none" xmlns="http://www.w3.org/2000/svg">
<path fill-rule="evenodd" clip-rule="evenodd" d="M10 10C13.7441 10 17.1582 8.3457 19.748 5.625C20.084 5.27148 20.084 4.72852 19.748 4.375C17.1582 1.6543 13.7441 0 10 0C6.25586 0 2.8418 1.6543 0.251953 4.375C-0.0839844 4.72852 -0.0839844 5.27148 0.251953 5.625C2.8418 8.3457 6.25586 10 10 10ZM12.3184 6.90527C12.7441 6.38672 13 5.72363 13 5C13 3.34277 11.6562 2 10 2C8.34375 2 7 3.34277 7 5C7 6.65723 8.34375 8 10 8C10.9336 8 11.7676 7.57324 12.3184 6.90527Z" fill="#C4C4C4"/>
</svg>
