<svg width="200" height="46" viewBox="0 0 200 46" version="1.1" xmlns="http://www.w3.org/2000/svg" xmlns:xlink="http://www.w3.org/1999/xlink">
<title>logo</title>
<desc>Created using Figma</desc>
<g id="Canvas" transform="translate(-25431 1361)">
<g id="logo">
<g id="Vector">
<use xlink:href="#path0_fill" transform="translate(25491.3 -1347.17)" fill="#FFFFFF"/>
<use xlink:href="#path1_fill" transform="translate(25491.3 -1347.17)" fill="#FFFFFF"/>
<use xlink:href="#path2_fill" transform="translate(25491.3 -1347.17)" fill="#FFFFFF"/>
<use xlink:href="#path3_fill" transform="translate(25491.3 -1347.17)" fill="#FFFFFF"/>
<use xlink:href="#path4_fill" transform="translate(25491.3 -1347.17)" fill="#FFFFFF"/>
<use xlink:href="#path5_fill" transform="translate(25491.3 -1347.17)" fill="#FFFFFF"/>
<use xlink:href="#path6_fill" transform="translate(25491.3 -1347.17)" fill="#FFFFFF"/>
<use xlink:href="#path7_fill" transform="translate(25491.3 -1347.17)" fill="#FFFFFF"/>
</g>
<g id="Vector">
<use xlink:href="#path8_fill" transform="translate(25431 -1361)" fill="#E7AC31"/>
<use xlink:href="#path9_fill" transform="translate(25431 -1361)" fill="#E7AC31"/>
</g>
</g>
</g>
<defs>
<path id="path0_fill" d="M 14.8099 14.5178C 13.1315 16.149 11.091 16.932 8.65559 16.932C 6.22018 16.932 4.14678 16.1164 2.50123 14.5178C 0.822771 12.8866 0 10.8965 0 8.48236C 0 6.06818 0.822771 4.0781 2.50123 2.4469C 4.17969 0.815693 6.22018 0.0327143 8.65559 0.0327143C 11.091 0.0327143 13.1644 0.848318 14.8099 2.4469C 16.4884 4.0781 17.3112 6.06818 17.3112 8.48236C 17.3441 10.8965 16.4884 12.8866 14.8099 14.5178ZM 13.5593 8.48236C 13.5593 7.01427 13.0986 5.77456 12.1441 4.76321C 11.1897 3.71924 10.0378 3.22988 8.65559 3.22988C 7.27333 3.22988 6.12144 3.75186 5.16702 4.76321C 4.2126 5.80718 3.75185 7.0469 3.75185 8.48236C 3.75185 9.95045 4.2126 11.1902 5.16702 12.2015C 6.12144 13.2129 7.27333 13.7348 8.65559 13.7348C 10.0378 13.7348 11.1897 13.2129 12.1441 12.2015C 13.0986 11.1902 13.5593 9.95045 13.5593 8.48236Z"/>
<path id="path1_fill" d="M 33.8326 5.83971C 33.8326 8.44963 32.7794 10.1461 30.706 10.9291L 34.8857 16.7688L 30.344 16.7688L 26.6909 11.5489L 24.1567 11.5489L 24.1567 16.7688L 20.4707 16.7688L 20.4707 0.391479L 26.7238 0.391479C 29.2908 0.391479 31.1339 0.815593 32.2199 1.66382C 33.2731 2.54467 33.8326 3.94751 33.8326 5.83971ZM 29.3896 7.76453C 29.8503 7.37304 30.0807 6.72056 30.0807 5.83971C 30.0807 4.95885 29.8503 4.339 29.3567 4.01276C 28.8959 3.68651 28.0731 3.52339 26.8883 3.52339L 24.1238 3.52339L 24.1238 8.38439L 26.8225 8.38439C 28.0731 8.38439 28.9288 8.18864 29.3896 7.76453Z"/>
<path id="path2_fill" d="M 49.3666 16.7688L 47.8198 13.2453L 40.9085 13.2453L 39.3946 16.7688L 35.4453 16.7688L 42.587 0.424072L 46.1414 0.424072L 53.2831 16.7688L 49.3666 16.7688ZM 44.3971 5.28506L 42.3237 10.0482L 46.4705 10.0482L 44.3971 5.28506Z"/>
<path id="path3_fill" d="M 66.7432 0.391479L 70.4292 0.391479L 70.4292 16.7362L 66.7432 16.7362L 58.8774 6.49219L 58.8774 16.7362L 55.1914 16.7362L 55.1914 0.391479L 58.6471 0.391479L 66.7432 10.9291L 66.7432 0.391479Z"/>
<path id="path4_fill" d="M 85.2071 8.44965L 88.9261 8.44965L 88.9261 14.2241C 87.2805 16.0184 85.0097 16.9319 82.1135 16.9319C 79.6781 16.9319 77.6705 16.1489 76.025 14.5504C 74.3794 12.9518 73.5566 10.9617 73.5566 8.51489C 73.5566 6.10071 74.3794 4.07801 76.0579 2.44681C 77.7363 0.815603 79.7439 0 82.1135 0C 84.4831 0 86.5565 0.782978 88.3008 2.31631L 86.3919 5.05674C 85.6679 4.40426 84.9767 3.98014 84.3514 3.71915C 83.7261 3.49078 83.0679 3.36028 82.3439 3.36028C 80.9287 3.36028 79.7768 3.81702 78.7895 4.76312C 77.8351 5.70922 77.3414 6.94894 77.3414 8.48227C 77.3414 10.0156 77.8022 11.2553 78.7237 12.2014C 79.6452 13.1149 80.7312 13.6043 82.0148 13.6043C 83.2983 13.6043 84.3514 13.3759 85.2071 12.8865L 85.2071 8.44965Z"/>
<path id="path5_fill" d="M 104.098 0.391479L 104.098 3.65389L 95.8699 3.65389L 95.8699 7.01417L 103.275 7.01417L 103.275 10.1135L 95.8699 10.1135L 95.8699 13.5064L 104.361 13.5064L 104.361 16.7362L 92.2168 16.7362L 92.2168 0.391479L 104.098 0.391479Z"/>
<path id="path6_fill" d="M 119.402 16.7688L 117.855 13.2453L 110.944 13.2453L 109.397 16.7688L 105.48 16.7688L 112.622 0.424072L 116.177 0.424072L 123.318 16.7688L 119.402 16.7688ZM 114.432 5.28506L 112.359 10.0482L 116.506 10.0482L 114.432 5.28506Z"/>
<path id="path7_fill" d="M 138.621 5.83971C 138.621 8.44963 137.568 10.1461 135.495 10.9291L 139.674 16.7688L 135.133 16.7688L 131.48 11.5489L 128.913 11.5489L 128.913 16.7688L 125.227 16.7688L 125.227 0.391479L 131.48 0.391479C 134.047 0.391479 135.89 0.815593 136.976 1.66382C 138.062 2.54467 138.621 3.94751 138.621 5.83971ZM 134.178 7.76453C 134.639 7.37304 134.869 6.72056 134.869 5.83971C 134.869 4.95885 134.639 4.339 134.145 4.01276C 133.685 3.68651 132.862 3.52339 131.677 3.52339L 128.913 3.52339L 128.913 8.38439L 131.611 8.38439C 132.862 8.38439 133.718 8.18864 134.178 7.76453Z"/>
<path id="path8_fill" d="M 46.6667 23C 46.6667 10.3092 36.208 0 23.3333 0C 10.4586 0 0 10.3092 0 23C 0 35.6908 10.4586 46 23.3333 46C 28.6288 46 33.4941 44.2709 37.3995 41.3348L 22.7376 41.3348C 12.7423 41.0411 4.69976 32.9504 4.69976 23C 4.69976 12.8539 13.0402 4.66525 23.3002 4.66525C 33.3948 4.66525 41.6028 12.5603 41.9007 22.4454L 41.9007 36.8652C 44.9125 33.0156 46.6667 28.2199 46.6667 23Z"/>
<path id="path9_fill" d="M 34.9829 34.4836L 34.9829 24.8269L 27.7346 24.8269C 26.9734 26.556 25.2193 27.7631 23.1673 27.7631C 20.4202 27.7631 18.1696 25.5773 18.1696 22.8368C 18.1696 20.129 20.3871 17.9106 23.1673 17.9106C 24.8883 17.9106 26.4108 18.7915 27.3044 20.0964L 34.6188 20.0964C 33.3942 15.0071 28.7276 11.2227 23.1673 11.2227C 16.6472 11.2227 11.3848 16.4425 11.3848 22.8368C 11.3848 29.0354 16.3162 34.0922 22.5053 34.451L 22.5053 34.4836L 34.9829 34.4836Z"/>
</defs>
</svg>
