<svg width="16" height="16" viewBox="0 0 16 16" fill="none" xmlns="http://www.w3.org/2000/svg">
  <path fill-rule="evenodd" clip-rule="evenodd" d="M9.43453 10.8423C8.45816 11.5375 7.26353 11.9468 5.97338 11.9468C2.67436 11.9468 0 9.27216 0 5.97339C0 2.67461 2.67436 0 5.97338 0C9.27241 0 11.9468 2.67461 11.9468 5.97339C11.9468 7.26354 11.5377 8.45841 10.8423 9.43453L15.9998 14.5922L14.592 16L9.43453 10.8423ZM9.95564 5.97339C9.95564 8.17257 8.17281 9.95564 5.97338 9.95564C3.77396 9.95564 1.99113 8.17257 1.99113 5.97339C1.99113 3.7742 3.77396 1.99113 5.97338 1.99113C8.17281 1.99113 9.95564 3.7742 9.95564 5.97339Z" fill="#2C2C2C"/>
</svg>
