<svg width="16" height="16" viewBox="0 0 16 16" fill="none" xmlns="http://www.w3.org/2000/svg">
<path fill-rule="evenodd" clip-rule="evenodd" d="M10.75 3V4.5H9.25V3H10.75ZM9.25 13V11.5H10.75V13H9.25Z" fill="#DEDEDE"/>
<path fill-rule="evenodd" clip-rule="evenodd" d="M3 2C2.44772 2 2 2.44772 2 3V4H3.5V6H0V3C0 1.5135 1.08114 0.279518 2.5 0.0414792V0H13C14.6569 0 16 1.34315 16 3V16H4V3C4 2.44772 3.55228 2 3 2ZM5.82929 2C5.93985 2.31278 6 2.64936 6 3V14H14V3C14 2.44772 13.5523 2 13 2H5.82929Z" fill="#DEDEDE"/>
<path fill-rule="evenodd" clip-rule="evenodd" d="M7.25 6.2C7.25 5.12304 8.12304 4.25 9.2 4.25H12V5.75H9.2C8.95147 5.75 8.75 5.95147 8.75 6.2C8.75 6.7799 9.2201 7.25 9.8 7.25H10.2C11.6083 7.25 12.75 8.39167 12.75 9.8C12.75 10.877 11.877 11.75 10.8 11.75H7.5V10.25H10.8C11.0485 10.25 11.25 10.0485 11.25 9.8C11.25 9.2201 10.7799 8.75 10.2 8.75H9.8C8.39167 8.75 7.25 7.60833 7.25 6.2Z" fill="#DEDEDE"/>
</svg>
