<svg width="9" height="6" viewBox="0 0 9 6" fill="none" xmlns="http://www.w3.org/2000/svg">
<path d="M6.29289 1.70711C6.92286 1.07714 8 1.52331 8 2.41421V7C8 7.55228 7.55228 8 7 8H2.41421C1.52331 8 1.07714 6.92286 1.70711 6.29289L6.29289 1.70711Z" transform="translate(4.65625 -5) rotate(45)" fill="#2C2C2C"/>
</svg>
